module gitlab.com/dnwandana/gitlab-self-runner

go 1.17

require github.com/gofiber/fiber/v2 v2.28.0

require (
	github.com/andybalholm/brotli v1.0.4 // indirect
	github.com/klauspost/compress v1.15.0 // indirect
	github.com/valyala/bytebufferpool v1.0.0 // indirect
	github.com/valyala/fasthttp v1.34.0 // indirect
	github.com/valyala/tcplisten v1.0.0 // indirect
	golang.org/x/sys v0.0.0-20220307203707-22a9840ba4d7 // indirect
)
